{
    "chances": "Šance na vstup do Sněmovny",
    "party": "Strana",
    "chance": "Šance",
    "quorum": "Kvórum",
    "info": "Šance na vstup do Sněmovny je odhadována na základě stejného modelu jako v sekci <strong>Počet mandátů</strong>. Jde o šanci na zisk alespoň jednoho mandátu, tedy u jednotlivých stran o zisk alespoň 5 % hlasů, u koalic 2 stran (např. <em>Piráti+STAN</em>) je to 8 %, koalic 3 a více stran (např. <em>SPOLU</em>) je to 11 %."
}